module gitlab.com/thorchain/thornode

go 1.17

require (
	github.com/99designs/keyring v1.1.6
	github.com/armon/go-metrics v0.3.10
	github.com/binance-chain/ledger-cosmos-go v0.9.9 // indirect
	github.com/binance-chain/tss-lib v1.3.2
	github.com/blang/semver v3.5.1+incompatible
	github.com/btcsuite/btcd v0.22.0-beta
	github.com/btcsuite/btcutil v1.0.3-0.20201208143702-a53e38424cce
	github.com/cenkalti/backoff v2.2.1+incompatible
	github.com/cosmos/cosmos-sdk v0.45.1
	github.com/cosmos/go-bip39 v1.0.0
	github.com/decred/dcrd/dcrec/edwards v1.0.0
	github.com/didip/tollbooth v4.0.2+incompatible
	github.com/eager7/dogd v0.0.0-20200427085516-2caf59f59dbb
	github.com/eager7/dogutil v0.0.0-20200427040807-200e961ba4b5
	github.com/ethereum/go-ethereum v1.10.25
	github.com/gcash/bchd v0.17.1
	github.com/gcash/bchutil v0.0.0-20201025062739-fc759989ee3e
	github.com/gogo/protobuf v1.3.3
	github.com/google/uuid v1.3.0
	github.com/gorilla/mux v1.8.0
	github.com/grpc-ecosystem/grpc-gateway v1.16.0
	github.com/hashicorp/go-multierror v1.1.0
	github.com/hashicorp/go-retryablehttp v0.6.4
	github.com/ipfs/go-log v1.0.4
	github.com/ltcsuite/ltcd v0.20.1-beta.0.20201210074626-c807bfe31ef0
	github.com/ltcsuite/ltcutil v1.0.2-beta
	github.com/magiconair/properties v1.8.5
	github.com/multiformats/go-multiaddr v0.3.1
	github.com/patrickmn/go-cache v2.1.0+incompatible // indirect
	github.com/prometheus/client_golang v1.11.0
	github.com/rakyll/statik v0.1.7 // indirect
	github.com/rjeczalik/notify v0.9.2 // indirect
	github.com/rs/zerolog v1.23.0
	github.com/spf13/cast v1.4.1
	github.com/spf13/cobra v1.3.0
	github.com/spf13/pflag v1.0.5
	github.com/spf13/viper v1.10.0
	github.com/syndtr/goleveldb v1.0.1-0.20210819022825-2ae1ddf74ef7
	github.com/tendermint/btcd v0.1.1
	github.com/tendermint/go-amino v0.16.0
	github.com/tendermint/tendermint v0.34.14
	github.com/tendermint/tm-db v0.6.4
	gitlab.com/thorchain/bifrost/bchd-txscript v0.0.0-20210123055555-abb86a2e300a
	gitlab.com/thorchain/bifrost/dogd-txscript v0.0.0-20210210114734-b88bfb72ff40
	gitlab.com/thorchain/bifrost/ltcd-txscript v0.0.0-20210123055845-c0f9cad51f13
	gitlab.com/thorchain/bifrost/txscript v0.0.0-20210123055850-29da989e6f5a
	gitlab.com/thorchain/binance-sdk v1.2.3-0.20210117202539-d569b6b9ba5d
	gitlab.com/thorchain/tss/go-tss v1.5.3
	go.uber.org/atomic v1.7.0
	golang.org/x/oauth2 v0.0.0-20211104180415-d3ed0bb246c8
	golang.org/x/sync v0.0.0-20210220032951-036812b2e83c
	google.golang.org/genproto v0.0.0-20220211171837-173942840c17 // indirect
	google.golang.org/grpc v1.44.0
	gopkg.in/check.v1 v1.0.0-20201130134442-10cb98267c6c
	gopkg.in/ini.v1 v1.66.2 // indirect
	gopkg.in/yaml.v2 v2.4.0
)

require (
	filippo.io/edwards25519 v1.0.0-beta.2 // indirect
	github.com/ChainSafe/go-schnorrkel v0.0.0-20200405005733-88cbf1b4c40d // indirect
	github.com/DataDog/zstd v1.4.5 // indirect
	github.com/StackExchange/wmi v0.0.0-20180116203802-5d049714c4a6 // indirect
	github.com/VictoriaMetrics/fastcache v1.9.0 // indirect
	github.com/Workiva/go-datastructures v1.0.52 // indirect
	github.com/aead/siphash v1.0.1 // indirect
	github.com/agl/ed25519 v0.0.0-20200225211852-fd4d107ace12 // indirect
	github.com/beorn7/perks v1.0.1 // indirect
	github.com/bgentry/speakeasy v0.1.0 // indirect
	github.com/btcsuite/btcd/btcec/v2 v2.2.0 // indirect
	github.com/btcsuite/btclog v0.0.0-20170628155309-84c8d2346e9f // indirect
	github.com/btcsuite/go-socks v0.0.0-20170105172521-4720035b7bfd // indirect
	github.com/btcsuite/websocket v0.0.0-20150119174127-31079b680792 // indirect
	github.com/cespare/xxhash v1.1.0 // indirect
	github.com/cespare/xxhash/v2 v2.1.2 // indirect
	github.com/coinbase/rosetta-sdk-go v0.7.0 // indirect
	github.com/confio/ics23/go v0.6.6 // indirect
	github.com/coreos/go-semver v0.3.0 // indirect
	github.com/cosmos/btcutil v1.0.4 // indirect
	github.com/cosmos/iavl v0.17.3 // indirect
	github.com/cosmos/ibc-go/v2 v2.0.3
	github.com/cosmos/ledger-cosmos-go v0.11.1 // indirect
	github.com/cosmos/ledger-go v0.9.2 // indirect
	github.com/danieljoos/wincred v1.0.2 // indirect
	github.com/davecgh/go-spew v1.1.1 // indirect
	github.com/davidlazar/go-crypto v0.0.0-20200604182044-b73af7476f6c // indirect
	github.com/dchest/siphash v1.2.2 // indirect
	github.com/deckarep/golang-set v1.8.0 // indirect
	github.com/decred/dcrd/dcrec/edwards/v2 v2.0.0 // indirect
	github.com/decred/dcrd/dcrec/secp256k1/v4 v4.0.1 // indirect
	github.com/desertbit/timer v0.0.0-20180107155436-c41aec40b27f // indirect
	github.com/dgraph-io/badger/v2 v2.2007.2 // indirect
	github.com/dgraph-io/ristretto v0.0.3 // indirect
	github.com/dgryski/go-farm v0.0.0-20200201041132-a6ae2369ad13 // indirect
	github.com/dustin/go-humanize v1.0.0 // indirect
	github.com/dvsekhvalnov/jose2go v0.0.0-20200901110807-248326c1351b // indirect
	github.com/eager7/doglog v0.0.0-20200427040431-a0db59f0a792 // indirect
	github.com/felixge/httpsnoop v1.0.1 // indirect
	github.com/flynn/noise v0.0.0-20180327030543-2492fe189ae6 // indirect
	github.com/fsnotify/fsnotify v1.5.1 // indirect
	github.com/gcash/bchlog v0.0.0-20180913005452-b4f036f92fa6 // indirect
	github.com/go-kit/kit v0.10.0 // indirect
	github.com/go-logfmt/logfmt v0.5.0 // indirect
	github.com/go-ole/go-ole v1.2.1 // indirect
	github.com/go-stack/stack v1.8.0 // indirect
	github.com/godbus/dbus v0.0.0-20190726142602-4481cbc300e2 // indirect
	github.com/gogo/gateway v1.1.0 // indirect
	github.com/golang/protobuf v1.5.2 // indirect
	github.com/golang/snappy v0.0.4 // indirect
	github.com/google/btree v1.0.1 // indirect
	github.com/google/gopacket v1.1.18 // indirect
	github.com/google/orderedcode v0.0.1 // indirect
	github.com/gorilla/handlers v1.5.1 // indirect
	github.com/gorilla/websocket v1.4.2 // indirect
	github.com/grpc-ecosystem/go-grpc-middleware v1.3.0 // indirect
	github.com/gsterjov/go-libsecret v0.0.0-20161001094733-a6f4afe4910c // indirect
	github.com/gtank/merlin v0.1.1 // indirect
	github.com/gtank/ristretto255 v0.1.2 // indirect
	github.com/hashicorp/errwrap v1.0.0 // indirect
	github.com/hashicorp/go-cleanhttp v0.5.2 // indirect
	github.com/hashicorp/go-immutable-radix v1.3.1 // indirect
	github.com/hashicorp/golang-lru v0.5.5-0.20210104140557-80c98217689d // indirect
	github.com/hashicorp/hcl v1.0.0 // indirect
	github.com/hdevalence/ed25519consensus v0.0.0-20210204194344-59a8610d2b87 // indirect
	github.com/holiman/bloomfilter/v2 v2.0.3 // indirect
	github.com/holiman/uint256 v1.2.0 // indirect
	github.com/huin/goupnp v1.0.3 // indirect
	github.com/improbable-eng/grpc-web v0.14.1 // indirect
	github.com/inconshreveable/mousetrap v1.0.0 // indirect
	github.com/ipfs/go-cid v0.0.7 // indirect
	github.com/ipfs/go-datastore v0.4.5 // indirect
	github.com/ipfs/go-ipfs-util v0.0.2 // indirect
	github.com/ipfs/go-ipns v0.0.2 // indirect
	github.com/ipfs/go-log/v2 v2.1.1 // indirect
	github.com/jackpal/go-nat-pmp v1.0.2 // indirect
	github.com/jbenet/go-temp-err-catcher v0.1.0 // indirect
	github.com/jbenet/goprocess v0.1.4 // indirect
	github.com/jmhodges/levigo v1.0.0 // indirect
	github.com/json-iterator/go v1.1.12
	github.com/keybase/go-keychain v0.0.0-20190712205309-48d3d31d256d // indirect
	github.com/kkdai/bstream v1.0.0 // indirect
	github.com/klauspost/compress v1.11.7 // indirect
	github.com/koron/go-ssdp v0.0.0-20191105050749-2e1c40ed0b5d // indirect
	github.com/kr/pretty v0.3.0 // indirect
	github.com/kr/text v0.2.0 // indirect
	github.com/lib/pq v1.10.2 // indirect
	github.com/libp2p/go-addr-util v0.0.2 // indirect
	github.com/libp2p/go-buffer-pool v0.0.2 // indirect
	github.com/libp2p/go-cidranger v1.1.0 // indirect
	github.com/libp2p/go-conn-security-multistream v0.2.0 // indirect
	github.com/libp2p/go-eventbus v0.2.1 // indirect
	github.com/libp2p/go-flow-metrics v0.0.3 // indirect
	github.com/libp2p/go-libp2p v0.11.0 // indirect
	github.com/libp2p/go-libp2p-asn-util v0.0.0-20200825225859-85005c6cf052 // indirect
	github.com/libp2p/go-libp2p-autonat v0.3.2 // indirect
	github.com/libp2p/go-libp2p-blankhost v0.2.0 // indirect
	github.com/libp2p/go-libp2p-circuit v0.3.1 // indirect
	github.com/libp2p/go-libp2p-core v0.6.1 // indirect
	github.com/libp2p/go-libp2p-discovery v0.5.0 // indirect
	github.com/libp2p/go-libp2p-kad-dht v0.10.0 // indirect
	github.com/libp2p/go-libp2p-kbucket v0.4.7 // indirect
	github.com/libp2p/go-libp2p-loggables v0.1.0 // indirect
	github.com/libp2p/go-libp2p-mplex v0.2.4 // indirect
	github.com/libp2p/go-libp2p-nat v0.0.6 // indirect
	github.com/libp2p/go-libp2p-noise v0.1.1 // indirect
	github.com/libp2p/go-libp2p-peerstore v0.2.6 // indirect
	github.com/libp2p/go-libp2p-pnet v0.2.0 // indirect
	github.com/libp2p/go-libp2p-record v0.1.3 // indirect
	github.com/libp2p/go-libp2p-swarm v0.2.8 // indirect
	github.com/libp2p/go-libp2p-tls v0.1.3 // indirect
	github.com/libp2p/go-libp2p-transport-upgrader v0.3.0 // indirect
	github.com/libp2p/go-libp2p-yamux v0.2.8 // indirect
	github.com/libp2p/go-mplex v0.1.3 // indirect
	github.com/libp2p/go-msgio v0.0.6 // indirect
	github.com/libp2p/go-nat v0.0.5 // indirect
	github.com/libp2p/go-netroute v0.1.3 // indirect
	github.com/libp2p/go-openssl v0.0.7 // indirect
	github.com/libp2p/go-reuseport v0.0.2 // indirect
	github.com/libp2p/go-reuseport-transport v0.0.4 // indirect
	github.com/libp2p/go-sockaddr v0.1.0 // indirect
	github.com/libp2p/go-stream-muxer-multistream v0.3.0 // indirect
	github.com/libp2p/go-tcp-transport v0.2.1 // indirect
	github.com/libp2p/go-ws-transport v0.3.1 // indirect
	github.com/libp2p/go-yamux v1.3.8 // indirect
	github.com/mattn/go-isatty v0.0.14 // indirect
	github.com/mattn/go-runewidth v0.0.9 // indirect
	github.com/matttproud/golang_protobuf_extensions v1.0.2-0.20181231171920-c182affec369 // indirect
	github.com/mimoo/StrobeGo v0.0.0-20181016162300-f8f6d4d2b643 // indirect
	github.com/minio/blake2b-simd v0.0.0-20160723061019-3f5f724cb5b1 // indirect
	github.com/minio/highwayhash v1.0.1 // indirect
	github.com/minio/sha256-simd v0.1.1 // indirect
	github.com/mitchellh/go-homedir v1.1.0 // indirect
	github.com/mitchellh/mapstructure v1.4.3 // indirect
	github.com/modern-go/concurrent v0.0.0-20180306012644-bacd9c7ef1dd // indirect
	github.com/modern-go/reflect2 v1.0.2 // indirect
	github.com/mr-tron/base58 v1.2.0 // indirect
	github.com/mtibben/percent v0.2.1 // indirect
	github.com/multiformats/go-base32 v0.0.3 // indirect
	github.com/multiformats/go-base36 v0.1.0 // indirect
	github.com/multiformats/go-multiaddr-dns v0.2.0 // indirect
	github.com/multiformats/go-multiaddr-fmt v0.1.0 // indirect
	github.com/multiformats/go-multiaddr-net v0.2.0 // indirect
	github.com/multiformats/go-multibase v0.0.3 // indirect
	github.com/multiformats/go-multihash v0.0.14 // indirect
	github.com/multiformats/go-multistream v0.1.2 // indirect
	github.com/multiformats/go-varint v0.0.6 // indirect
	github.com/olekukonko/tablewriter v0.0.5 // indirect
	github.com/opentracing/opentracing-go v1.2.0 // indirect
	github.com/otiai10/primes v0.0.0-20180210170552-f6d2a1ba97c4 // indirect
	github.com/pelletier/go-toml v1.9.4 // indirect
	github.com/petermattis/goid v0.0.0-20180202154549-b0b1615b78e5 // indirect
	github.com/pkg/errors v0.9.1 // indirect
	github.com/pmezard/go-difflib v1.0.0 // indirect
	github.com/prometheus/client_model v0.2.0 // indirect
	github.com/prometheus/common v0.29.0 // indirect
	github.com/prometheus/procfs v0.6.0 // indirect
	github.com/prometheus/tsdb v0.10.0 // indirect
	github.com/rcrowley/go-metrics v0.0.0-20200313005456-10cdbea86bc0 // indirect
	github.com/regen-network/cosmos-proto v0.3.1 // indirect
	github.com/rogpeppe/go-internal v1.8.1 // indirect
	github.com/rs/cors v1.7.0 // indirect
	github.com/sasha-s/go-deadlock v0.2.1-0.20190427202633-1595213edefa // indirect
	github.com/shirou/gopsutil v3.21.4-0.20210419000835-c7a38de76ee5+incompatible // indirect
	github.com/spacemonkeygo/spacelog v0.0.0-20180420211403-2296661a0572 // indirect
	github.com/spaolacci/murmur3 v1.1.0 // indirect
	github.com/spf13/afero v1.6.0 // indirect
	github.com/spf13/jwalterweatherman v1.1.0 // indirect
	github.com/stretchr/testify v1.7.2 // indirect
	github.com/subosito/gotenv v1.2.0 // indirect
	github.com/tecbot/gorocksdb v0.0.0-20191217155057-f0fad39f321c // indirect
	github.com/tendermint/crypto v0.0.0-20191022145703-50d29ede1e15 // indirect
	github.com/tklauser/go-sysconf v0.3.5 // indirect
	github.com/tklauser/numcpus v0.2.2 // indirect
	github.com/whyrusleeping/go-keyspace v0.0.0-20160322163242-5b898ac5add1 // indirect
	github.com/whyrusleeping/multiaddr-filter v0.0.0-20160516205228-e903e4adabd7 // indirect
	github.com/zondax/hid v0.9.0 // indirect
	github.com/zondax/ledger-go v0.12.1 // indirect
	go.etcd.io/bbolt v1.3.6 // indirect
	go.opencensus.io v0.23.0 // indirect
	go.uber.org/multierr v1.6.0 // indirect
	go.uber.org/zap v1.19.0 // indirect
	golang.org/x/crypto v0.0.0-20220131195533-30dcbda58838 // indirect
	golang.org/x/net v0.0.0-20220607020251-c690dde0001d // indirect
	golang.org/x/sys v0.0.0-20220520151302-bc2c85ada10a // indirect
	golang.org/x/term v0.0.0-20210927222741-03fcf44c2211 // indirect
	golang.org/x/text v0.3.7 // indirect
	golang.org/x/time v0.0.0-20210723032227-1f47c861a9ac // indirect
	golang.org/x/tools v0.1.8 // indirect
	google.golang.org/appengine v1.6.7 // indirect
	google.golang.org/protobuf v1.27.1 // indirect
	gopkg.in/natefinch/npipe.v2 v2.0.0-20160621034901-c1b8fa8bdcce // indirect
	gopkg.in/yaml.v3 v3.0.1 // indirect
	nhooyr.io/websocket v1.8.6 // indirect
)

require github.com/jinzhu/copier v0.3.5

require golang.org/x/mod v0.6.0-dev.0.20211013180041-c96bc1413d57 // indirect

replace (
	github.com/agl/ed25519 => github.com/binance-chain/edwards25519 v0.0.0-20200305024217-f36fc4b53d43
	github.com/binance-chain/tss-lib => gitlab.com/thorchain/tss/tss-lib v0.1.3
	github.com/cosmos/ledger-cosmos-go => github.com/thorchain/ledger-thorchain-go v0.12.1
	github.com/gogo/protobuf => github.com/regen-network/protobuf v1.3.2-alpha.regen.4
	github.com/tendermint/go-amino => github.com/binance-chain/bnc-go-amino v0.14.1-binance.1
	github.com/zondax/ledger-go => github.com/binance-chain/ledger-go v0.9.1
)
